{
    "links": [{
        "name": "חוסרים",
        "link": "https://docs.google.com/forms/d/e/1FAIpQLSdYKSbMtYFwHZAvRNLQZIAT5J4PRxEGS-SegpKbg1zK8LALsg/viewform?usp=sf_link"
    },
    {
        "name": "ציוד להיתנסויות",
        "link": "https://docs.google.com/forms/d/e/1FAIpQLSeHoeLXvzOEpOsnZlqCBjWVf8ZVBGF16P7tdlRao91fNId5DQ/viewform?usp=sf_link"
    },
    {
        "name": "תקלות בינוי",
        "link": "https://docs.google.com/forms/d/e/1FAIpQLSd8DqshmO4acbxzeDjxqI2U5dVFNGEHxZriUW_2fDNg09v0EA/viewform?usp=sf_link"
    }]
}