{
    "messages" : [
        {
            "title": "ברוכים הבאים",
            "body": "ברוכים הבאים לאתר הקל\"ג, פה תוכלו למצוא את כל הקבצים הקשורים לקלג, טפסים, והניקוד שלכם באלוף הקל\"ג"
        }
    ]
}